cpu.vcd
$date
	Fri Jun 26 08:05:47 2026
$end
$version
	Icarus Verilog
$end
$timescale
	1ps
$end
$scope module testbench $end
$var reg 1 ! clk $end
$var reg 1 " reset $end
$var integer 32 # ciclo [31:0] $end
$scope module DUT $end
$var wire 1 ! clk $end
$var wire 1 " reset $end
$var wire 32 $ write_data [31:0] $end
$var wire 32 % zero_ext_imm [31:0] $end
$var wire 1 & zero $end
$var wire 5 ' write_reg [4:0] $end
$var wire 32 ( sign_ext_imm [31:0] $end
$var wire 5 ) rt [4:0] $end
$var wire 5 * rs [4:0] $end
$var wire 32 + read_data2 [31:0] $end
$var wire 32 , read_data1 [31:0] $end
$var wire 5 - rd [4:0] $end
$var wire 32 . r7_debug [31:0] $end
$var wire 32 / r6_debug [31:0] $end
$var wire 32 0 r5_debug [31:0] $end
$var wire 32 1 r4_debug [31:0] $end
$var wire 32 2 r3_debug [31:0] $end
$var wire 32 3 r2_debug [31:0] $end
$var wire 32 4 r1_debug [31:0] $end
$var wire 32 5 r0_debug [31:0] $end
$var wire 32 6 pc_plus4 [31:0] $end
$var wire 32 7 pc [31:0] $end
$var wire 6 8 opcode [5:0] $end
$var wire 32 9 next_pc [31:0] $end
$var wire 32 : jump_target [31:0] $end
$var wire 26 ; jump_address [25:0] $end
$var wire 32 < instruction [31:0] $end
$var wire 32 = immediate_ext [31:0] $end
$var wire 16 > immediate [15:0] $end
$var wire 6 ? funct [5:0] $end
$var wire 32 @ alu_result [31:0] $end
$var wire 32 A alu_input_b [31:0] $end
$var wire 4 B alu_control_signal [3:0] $end
$var wire 1 C ZeroExt $end
$var wire 1 D RegWrite $end
$var wire 1 E RegDst $end
$var wire 1 F Jump $end
$var wire 1 G ExtOp $end
$var wire 1 H ALUSrc $end
$var wire 2 I ALUOp [1:0] $end
$scope module AC $end
$var wire 6 J funct [5:0] $end
$var wire 2 K ALUOp [1:0] $end
$var reg 4 L ALUControl [3:0] $end
$upscope $end
$scope module ALU $end
$var wire 4 M ALUControl [3:0] $end
$var wire 1 & Zero $end
$var wire 32 N B [31:0] $end
$var wire 32 O A [31:0] $end
$var reg 32 P Result [31:0] $end
$upscope $end
$scope module ALUSrcMUX $end
$var wire 32 Q input1 [31:0] $end
$var wire 1 H sel $end
$var wire 32 R out [31:0] $end
$var wire 32 S input0 [31:0] $end
$var parameter 32 T WIDTH $end
$upscope $end
$scope module CU $end
$var wire 6 U opcode [5:0] $end
$var reg 2 V ALUOp [1:0] $end
$var reg 1 H ALUSrc $end
$var reg 1 G ExtOp $end
$var reg 1 F Jump $end
$var reg 1 E RegDst $end
$var reg 1 D RegWrite $end
$var reg 1 C ZeroExt $end
$upscope $end
$scope module IM $end
$var wire 32 W instruction [31:0] $end
$var wire 32 X address [31:0] $end
$var integer 32 Y i [31:0] $end
$upscope $end
$scope module JumpMUX $end
$var wire 32 Z input0 [31:0] $end
$var wire 32 [ input1 [31:0] $end
$var wire 1 F sel $end
$var wire 32 \ out [31:0] $end
$var parameter 32 ] WIDTH $end
$upscope $end
$scope module PC $end
$var wire 1 ! clk $end
$var wire 32 ^ next_pc [31:0] $end
$var wire 1 " reset $end
$var reg 32 _ current_pc [31:0] $end
$upscope $end
$scope module RF $end
$var wire 1 D RegWrite $end
$var wire 1 ! clk $end
$var wire 32 ` r0_debug [31:0] $end
$var wire 32 a r1_debug [31:0] $end
$var wire 32 b r2_debug [31:0] $end
$var wire 32 c r3_debug [31:0] $end
$var wire 32 d r4_debug [31:0] $end
$var wire 32 e r5_debug [31:0] $end
$var wire 32 f r6_debug [31:0] $end
$var wire 32 g r7_debug [31:0] $end
$var wire 32 h read_data1 [31:0] $end
$var wire 32 i read_data2 [31:0] $end
$var wire 5 j read_reg1 [4:0] $end
$var wire 5 k read_reg2 [4:0] $end
$var wire 32 l write_data [31:0] $end
$var wire 5 m write_reg [4:0] $end
$var integer 32 n i [31:0] $end
$upscope $end
$scope module RegDstMUX $end
$var wire 5 o input0 [4:0] $end
$var wire 5 p input1 [4:0] $end
$var wire 1 E sel $end
$var wire 5 q out [4:0] $end
$var parameter 32 r WIDTH $end
$upscope $end
$scope module SE $end
$var wire 16 s in [15:0] $end
$var wire 32 t out [31:0] $end
$upscope $end
$scope module ZE $end
$var wire 16 u in [15:0] $end
$var wire 32 v out [31:0] $end
$upscope $end
$upscope $end
$upscope $end
$enddefinitions $end
$comment Show the parameter values. $end
$dumpall
b101 r
b100000 ]
b100000 T
$end
#0
$dumpvars
b1010 v
b1010 u
b1010 t
b1010 s
b1 q
b0 p
b1 o
b100000 n
b1 m
b1010 l
b1 k
b0 j
b0 i
b0 h
b0 g
b0 f
b0 e
b0 d
b0 c
b0 b
b0 a
b0 `
b0 _
b100 ^
b100 \
b1000000000000101000 [
b100 Z
b100000000 Y
b0 X
b100000000000010000000000001010 W
b0 V
b1000 U
b0 S
b1010 R
b1010 Q
b1010 P
b0 O
b1010 N
b10 M
b10 L
b0 K
b1010 J
b0 I
1H
1G
0F
0E
1D
0C
b10 B
b1010 A
b1010 @
b1010 ?
b1010 >
b1010 =
b100000000000010000000000001010 <
b10000000000001010 ;
b1000000000000101000 :
b100 9
b1000 8
b0 7
b100 6
b0 5
b0 4
b0 3
b0 2
b0 1
b0 0
b0 /
b0 .
b0 -
b0 ,
b0 +
b0 *
b1 )
b1010 (
b1 '
0&
b1010 %
b1010 $
b0 #
1"
0!
$end
#5000
b1010 +
b1010 S
b1010 i
b1010 4
b1010 a
1!
#10000
0!
#15000
1!
#20000
0!
0"
#25000
b10100 $
b10100 l
b10100 @
b10100 P
b10100 A
b10100 N
b10100 R
b10100 =
b10100 Q
b10 '
b10 m
b10 q
b10000000000001010000 :
b10000000000001010000 [
b100000000000010100 ;
b10100 ?
b10100 J
b10100 (
b10100 t
b10100 %
b10100 v
b10100 >
b10100 s
b10100 u
b0 +
b0 S
b0 i
b10 )
b10 k
b10 o
b100000000000100000000000010100 <
b100000000000100000000000010100 W
b1000 9
b1000 \
b1000 ^
b1000 6
b1000 Z
b100 7
b100 X
b100 _
b1 #
1!
#30000
0!
#35000
b0 =
b0 Q
b11 '
b11 m
b11 q
b11110 $
b11110 l
b11110 @
b11110 P
b11 I
b11 K
b11 V
1E
0G
1D
0H
b100010000110000010000000 :
b100010000110000010000000 [
b1000100001100000100000 ;
b100000 ?
b100000 J
b1100000100000 (
b1100000100000 t
b1100000100000 %
b1100000100000 v
b1100000100000 >
b1100000100000 s
b1100000100000 u
b11 -
b11 p
b1010 ,
b1010 O
b1010 h
b1 *
b1 j
b0 8
b0 U
b1000100001100000100000 <
b1000100001100000100000 W
b1100 9
b1100 \
b1100 ^
b1100 6
b1100 Z
b1000 7
b1000 X
b1000 _
b10100 +
b10100 S
b10100 i
b10100 3
b10100 b
b10 #
1!
#40000
0!
#45000
0&
b1111 =
b1111 Q
b0 B
b0 L
b0 M
b100 '
b100 m
b100 q
b1111 A
b1111 N
b1111 R
b1110 $
b1110 l
b1110 @
b1110 P
1C
1H
b1 I
b1 K
b1 V
1D
0E
b1100100000000000000111100 :
b1100100000000000000111100 [
b11001000000000000001111 ;
b1111 ?
b1111 J
b1111 (
b1111 t
b1111 %
b1111 v
b1111 >
b1111 s
b1111 u
b0 -
b0 p
b0 +
b0 S
b0 i
b100 )
b100 k
b100 o
b11110 ,
b11110 O
b11110 h
b11 *
b11 j
b1100 8
b1100 U
b110000011001000000000000001111 <
b110000011001000000000000001111 W
b10000 9
b10000 \
b10000 ^
b10000 6
b10000 Z
b1100 7
b1100 X
b1100 _
b11110 2
b11110 c
b11 #
1!
#50000
0!
#55000
b11110 $
b11110 l
b11110 @
b11110 P
b10000 A
b10000 N
b10000 R
b1 B
b1 L
b1 M
b10000 =
b10000 Q
b101 '
b101 m
b101 q
b10 I
b10 K
b10 V
1C
1D
1H
b10000101000000000001000000 :
b10000101000000000001000000 [
b100001010000000000010000 ;
b10000 ?
b10000 J
b10000 (
b10000 t
b10000 %
b10000 v
b10000 >
b10000 s
b10000 u
b101 )
b101 k
b101 o
b1110 ,
b1110 O
b1110 h
b100 *
b100 j
b1101 8
b1101 U
b110100100001010000000000010000 <
b110100100001010000000000010000 W
b10100 9
b10100 \
b10100 ^
b10100 6
b10100 Z
b10000 7
b10000 X
b10000 _
b0 +
b0 S
b0 i
b1110 1
b1110 d
b100 #
1!
#60000
0!
#65000
1&
b0 A
b0 N
b0 R
b10 B
b10 L
b10 M
b0 =
b0 Q
b0 '
b0 m
b0 q
b0 $
b0 l
b0 @
b0 P
1F
b0 I
b0 K
b0 V
0C
0D
0H
b11100 :
b11100 [
b111 ;
b111 ?
b111 J
b111 (
b111 t
b111 %
b111 v
b111 >
b111 s
b111 u
b0 )
b0 k
b0 o
b0 ,
b0 O
b0 h
b0 *
b0 j
b10 8
b10 U
b1000000000000000000000000111 <
b1000000000000000000000000111 W
b11100 9
b11100 \
b11100 ^
b11000 6
b11000 Z
b10100 7
b10100 X
b10100 _
b0 +
b0 S
b0 i
b11110 0
b11110 e
b101 #
1!
#70000
0!
#75000
b100000 9
b100000 \
b100000 ^
b111 B
b111 L
b111 M
b10100 A
b10100 N
b10100 R
b111 '
b111 m
b111 q
0&
b1 $
b1 l
b1 @
b1 P
b11 I
b11 K
b11 V
1D
1E
0F
b100010001110000010101000 :
b100010001110000010101000 [
b1000100011100000101010 ;
b101010 ?
b101010 J
b11100000101010 (
b11100000101010 t
b11100000101010 %
b11100000101010 v
b11100000101010 >
b11100000101010 s
b11100000101010 u
b111 -
b111 p
b10100 +
b10100 S
b10100 i
b10 )
b10 k
b10 o
b1010 ,
b1010 O
b1010 h
b1 *
b1 j
b0 8
b0 U
b1000100011100000101010 <
b1000100011100000101010 W
b100000 6
b100000 Z
b11100 7
b11100 X
b11100 _
b110 #
1!
#80000
0!
#85000
1&
b0 $
b0 l
b0 @
b0 P
b10 B
b10 L
b10 M
b0 '
b0 m
b0 q
b0 A
b0 N
b0 R
b0 :
b0 [
b0 ;
b0 ?
b0 J
b0 (
b0 t
b0 %
b0 v
b0 >
b0 s
b0 u
b0 -
b0 p
b0 +
b0 S
b0 i
b0 )
b0 k
b0 o
b0 ,
b0 O
b0 h
b0 *
b0 j
b0 <
b0 W
b100100 9
b100100 \
b100100 ^
b100100 6
b100100 Z
b100000 7
b100000 X
b100000 _
b1 .
b1 g
b111 #
1!
#90000
0!
#95000
b101000 9
b101000 \
b101000 ^
b101000 6
b101000 Z
b100100 7
b100100 X
b100100 _
b1000 #
1!
#100000
0!
#105000
b101100 9
b101100 \
b101100 ^
b101100 6
b101100 Z
b101000 7
b101000 X
b101000 _
b1001 #
1!
#110000
0!
#115000
b110000 9
b110000 \
b110000 ^
b110000 6
b110000 Z
b101100 7
b101100 X
b101100 _
b1010 #
1!
#120000
0!
#125000
b110100 9
b110100 \
b110100 ^
b110100 6
b110100 Z
b110000 7
b110000 X
b110000 _
b1011 #
1!
#130000
0!
#135000
b111000 9
b111000 \
b111000 ^
b111000 6
b111000 Z
b110100 7
b110100 X
b110100 _
b1100 #
1!
#140000
0!
#145000
b111100 9
b111100 \
b111100 ^
b111100 6
b111100 Z
b111000 7
b111000 X
b111000 _
b1101 #
1!
#150000
0!
#155000
b1000000 9
b1000000 \
b1000000 ^
b1000000 6
b1000000 Z
b111100 7
b111100 X
b111100 _
b1110 #
1!
#160000
0!
#165000
b1000100 9
b1000100 \
b1000100 ^
b1000100 6
b1000100 Z
b1000000 7
b1000000 X
b1000000 _
b1111 #
1!
#170000
0!
#175000
b1001000 9
b1001000 \
b1001000 ^
b1001000 6
b1001000 Z
b1000100 7
b1000100 X
b1000100 _
b10000 #
1!
#180000
0!
#185000
b1001100 9
b1001100 \
b1001100 ^
b1001100 6
b1001100 Z
b1001000 7
b1001000 X
b1001000 _
b10001 #
1!
#190000
0!
#195000
b1010000 9
b1010000 \
b1010000 ^
b1010000 6
b1010000 Z
b1001100 7
b1001100 X
b1001100 _
b10010 #
1!
#200000
0!
#205000
b1010100 9
b1010100 \
b1010100 ^
b1010100 6
b1010100 Z
b1010000 7
b1010000 X
b1010000 _
b10011 #
1!
#210000
0!
#215000
b1011000 9
b1011000 \
b1011000 ^
b1011000 6
b1011000 Z
b1010100 7
b1010100 X
b1010100 _
b10100 #
1!
